CSSA single-line stress cases
…
summary_mse

## # A tibble: 36 × 13
##    config_id     description n_col n_row     a     b visible_pixels row_coverage
##    <chr>         <chr>       <int> <int> <dbl> <dbl>          <dbl>        <dbl>
##  1 almost_horiz… Almost Hor…   100   100  0.05    30            100         0.06
##  2 almost_horiz… Almost Hor…   100   100  0.05    30            100         0.06
##  3 almost_horiz… Almost Hor…   100   100  0.05    30            100         0.06
##  4 almost_horiz… Almost Hor…   100   100  0.05    30            100         0.06
##  5 diag_neg_full Negative f…   100   100 -1      101            100         1   
##  6 diag_neg_full Negative f…   100   100 -1      101            100         1   
##  7 diag_neg_full Negative f…   100   100 -1      101            100         1   
##  8 diag_neg_full Negative f…   100   100 -1      101            100         1   
##  9 diag_pos_full Positive f…   100   100  1        0            100         1   
## 10 diag_pos_full Positive f…   100   100  1        0            100         1   
## # ℹ 26 more rows
## # ℹ 5 more variables: col_coverage <dbl>, method <chr>, mean_mse <dbl>,
## #   median_mse <dbl>, sd_mse <dbl>
…
ht_error_summary

## # A tibble: 36 × 11
##    config_id        description n_col n_row     a     b method mean_dr median_dr
##    <chr>            <chr>       <int> <int> <dbl> <dbl> <chr>    <dbl>     <dbl>
##  1 almost_horizont… Almost Hor…   100   100  0.05    30 col.r… 1.44e+1   1.40e-3
##  2 almost_horizont… Almost Hor…   100   100  0.05    30 row.r… 2.59e+1   2.08e+1
##  3 almost_horizont… Almost Hor…   100   100  0.05    30 col.c… 5.29e+2   2.43e+2
##  4 almost_horizont… Almost Hor…   100   100  0.05    30 row.c… 1.05e+3   8.98e+2
##  5 diag_neg_full    Negative f…   100   100 -1      101 row.r… 2.36e-1   1.75e-1
##  6 diag_neg_full    Negative f…   100   100 -1      101 col.r… 1.78e+1   7.09e+0
##  7 diag_neg_full    Negative f…   100   100 -1      101 row.c… 4.09e+1   6.67e+0
##  8 diag_neg_full    Negative f…   100   100 -1      101 col.c… 2.61e+3   2.76e+3
##  9 diag_pos_full    Positive f…   100   100  1        0 col.c… 0         0      
## 10 diag_pos_full    Positive f…   100   100  1        0 row.r… 0         0      
## # ℹ 26 more rows
## # ℹ 2 more variables: mean_dtheta <dbl>, median_dtheta <dbl>
…
